/home/sanjana/Downloads/Groww/accessing-data-mysql/src/main/java/com/example/accessingdatamysql/MainController.java
/home/sanjana/Downloads/Groww/accessing-data-mysql/src/main/java/com/example/accessingdatamysql/UserRepository.java
/home/sanjana/Downloads/Groww/accessing-data-mysql/src/main/java/com/example/accessingdatamysql/AccessingDataMysqlApplication.java
/home/sanjana/Downloads/Groww/accessing-data-mysql/src/main/java/com/example/accessingdatamysql/User.java
